<?xml version="1.0" encoding="UTF-8"?>
<svg width="18px" height="16px" viewBox="0 0 18 16" version="1.1" xmlns="http://www.w3.org/2000/svg" xmlns:xlink="http://www.w3.org/1999/xlink">
    <title>icon_arrow</title>
    <g id="02-Design" stroke="none" stroke-width="1" fill="none" fill-rule="evenodd">
        <g id="Artboard" transform="translate(-93.000000, -10.000000)">
            <rect fill="#FFFFFF" x="0" y="0" width="128" height="44"></rect>
            <g id="icon_arrow_w" transform="translate(92.000000, 8.000000)" stroke="#FFFFFF" stroke-linecap="round" stroke-linejoin="round">
                <g id="arrow-forward-outline-copy" transform="translate(10.000000, 10.000000) rotate(-360.000000) translate(-10.000000, -10.000000) translate(2.307692, 2.307692)">
                    <polyline id="Path" points="8.28402367 0 15.3846154 7.47430707 8.28402367 14.9486141"></polyline>
                    <line x1="14.3984221" y1="7.52932627" x2="0" y2="7.52932627" id="Path"></line>
                </g>
            </g>
        </g>
    </g>
</svg>