<?xml version="1.0" encoding="UTF-8"?>
<svg width="20px" height="20px" viewBox="0 0 20 20" version="1.1" xmlns="http://www.w3.org/2000/svg" xmlns:xlink="http://www.w3.org/1999/xlink">
    <title>arrow-forward-outline copy</title>
    <g id="Symbols" stroke="none" stroke-width="1" fill="none" fill-rule="evenodd" stroke-linecap="round" stroke-linejoin="round">
        <g id="icon_arrow_L" transform="translate(-3.000000, -3.000000)" stroke="#4164D8" stroke-width="2">
            <g id="arrow-forward-outline-copy" transform="translate(13.000000, 13.000000) rotate(-180.000000) translate(-13.000000, -13.000000) translate(4.000000, 4.000000)">
                <polyline id="Path" points="9.69230769 0 18 8.74493927 9.69230769 17.4898785"></polyline>
                <line x1="16.8461538" y1="8.80931174" x2="0" y2="8.80931174" id="Path"></line>
            </g>
        </g>
    </g>
</svg>